%YAML 1.1
%TAG !u! tag:unity3d.com,2011:
--- !u!74 &7400000
AnimationClip:
  m_ObjectHideFlags: 0
  m_PrefabParentObject: {fileID: 0}
  m_PrefabInternal: {fileID: 0}
  m_Name: GM_SBT_EN_ON
  serializedVersion: 6
  m_Legacy: 0
  m_Compressed: 0
  m_UseHighQualityCurve: 1
  m_RotationCurves: []
  m_CompressedRotationCurves: []
  m_EulerCurves: []
  m_PositionCurves: []
  m_ScaleCurves:
  - curve:
      serializedVersion: 2
      m_Curve:
      - time: 0
        value: {x: 0.110470995, y: 0.110470995, z: 0.110470995}
        inSlope: {x: 0.03486961, y: 0.03486961, z: 0.03486961}
        outSlope: {x: 0.03486961, y: 0.03486961, z: 0.03486961}
        tangentMode: 0
      - time: 0.41666666
        value: {x: 0.125, y: 0.125, z: 0.125}
        inSlope: {x: 0.03486961, y: 0.03486961, z: 0.03486961}
        outSlope: {x: -0.03486961, y: -0.03486961, z: -0.03486961}
        tangentMode: 0
      - time: 0.8333333
        value: {x: 0.110470995, y: 0.110470995, z: 0.110470995}
        inSlope: {x: -0.03486961, y: -0.03486961, z: -0.03486961}
        outSlope: {x: -0.03486961, y: -0.03486961, z: -0.03486961}
        tangentMode: 0
      m_PreInfinity: 2
      m_PostInfinity: 2
      m_RotationOrder: 4
    path: SingleBT_EN_ON
  m_FloatCurves:
  - curve:
      serializedVersion: 2
      m_Curve:
      - time: 0
        value: 0
        inSlope: Infinity
        outSlope: Infinity
        tangentMode: 31
      m_PreInfinity: 2
      m_PostInfinity: 2
      m_RotationOrder: 4
    attribute: m_IsActive
    path: SingleBT_EN_OFF
    classID: 1
    script: {fileID: 0}
  - curve:
      serializedVersion: 2
      m_Curve:
      - time: 0
        value: 1
        inSlope: Infinity
        outSlope: Infinity
        tangentMode: 31
      m_PreInfinity: 2
      m_PostInfinity: 2
      m_RotationOrder: 4
    attribute: m_IsActive
    path: SingleBT_EN_ON
    classID: 1
    script: {fileID: 0}
  m_PPtrCurves: []
  m_SampleRate: 60
  m_WrapMode: 0
  m_Bounds:
    m_Center: {x: 0, y: 0, z: 0}
    m_Extent: {x: 0, y: 0, z: 0}
  m_ClipBindingConstant:
    genericBindings:
    - path: 1297303422
      attribute: 3
      script: {fileID: 0}
      classID: 4
      customType: 0
      isPPtrCurve: 0
    - path: 848596572
      attribute: 2086281974
      script: {fileID: 0}
      classID: 1
      customType: 0
      isPPtrCurve: 0
    - path: 1297303422
      attribute: 2086281974
      script: {fileID: 0}
      classID: 1
      customType: 0
      isPPtrCurve: 0
    pptrCurveMapping: []
  m_AnimationClipSettings:
    serializedVersion: 2
    m_AdditiveReferencePoseClip: {fileID: 0}
    m_AdditiveReferencePoseTime: 0
    m_StartTime: 0
    m_StopTime: 0.8333333
    m_OrientationOffsetY: 0
    m_Level: 0
    m_CycleOffset: 0
    m_HasAdditiveReferencePose: 0
    m_LoopTime: 1
    m_LoopBlend: 0
    m_LoopBlendOrientation: 0
    m_LoopBlendPositionY: 0
    m_LoopBlendPositionXZ: 0
    m_KeepOriginalOrientation: 0
    m_KeepOriginalPositionY: 1
    m_KeepOriginalPositionXZ: 0
    m_HeightFromFeet: 0
    m_Mirror: 0
  m_EditorCurves:
  - curve:
      serializedVersion: 2
      m_Curve:
      - time: 0
        value: 0.110470995
        inSlope: 0.03486961
        outSlope: 0.03486961
        tangentMode: 21
      - time: 0.41666666
        value: 0.125
        inSlope: 0.03486961
        outSlope: -0.03486961
        tangentMode: 21
      - time: 0.8333333
        value: 0.110470995
        inSlope: -0.03486961
        outSlope: -0.03486961
        tangentMode: 21
      m_PreInfinity: 2
      m_PostInfinity: 2
      m_RotationOrder: 4
    attribute: m_LocalScale.x
    path: SingleBT_EN_ON
    classID: 4
    script: {fileID: 0}
  - curve:
      serializedVersion: 2
      m_Curve:
      - time: 0
        value: 0.110470995
        inSlope: 0.03486961
        outSlope: 0.03486961
        tangentMode: 21
      - time: 0.41666666
        value: 0.125
        inSlope: 0.03486961
        outSlope: -0.03486961
        tangentMode: 21
      - time: 0.8333333
        value: 0.110470995
        inSlope: -0.03486961
        outSlope: -0.03486961
        tangentMode: 21
      m_PreInfinity: 2
      m_PostInfinity: 2
      m_RotationOrder: 4
    attribute: m_LocalScale.y
    path: SingleBT_EN_ON
    classID: 4
    script: {fileID: 0}
  - curve:
      serializedVersion: 2
      m_Curve:
      - time: 0
        value: 0.110470995
        inSlope: 0.03486961
        outSlope: 0.03486961
        tangentMode: 21
      - time: 0.41666666
        value: 0.125
        inSlope: 0.03486961
        outSlope: -0.03486961
        tangentMode: 21
      - time: 0.8333333
        value: 0.110470995
        inSlope: -0.03486961
        outSlope: -0.03486961
        tangentMode: 21
      m_PreInfinity: 2
      m_PostInfinity: 2
      m_RotationOrder: 4
    attribute: m_LocalScale.z
    path: SingleBT_EN_ON
    classID: 4
    script: {fileID: 0}
  - curve:
      serializedVersion: 2
      m_Curve:
      - time: 0
        value: 0
        inSlope: Infinity
        outSlope: Infinity
        tangentMode: 31
      m_PreInfinity: 2
      m_PostInfinity: 2
      m_RotationOrder: 4
    attribute: m_IsActive
    path: SingleBT_EN_OFF
    classID: 1
    script: {fileID: 0}
  - curve:
      serializedVersion: 2
      m_Curve:
      - time: 0
        value: 1
        inSlope: Infinity
        outSlope: Infinity
        tangentMode: 31
      m_PreInfinity: 2
      m_PostInfinity: 2
      m_RotationOrder: 4
    attribute: m_IsActive
    path: SingleBT_EN_ON
    classID: 1
    script: {fileID: 0}
  m_EulerEditorCurves: []
  m_HasGenericRootTransform: 0
  m_HasMotionFloatCurves: 0
  m_GenerateMotionCurves: 0
  m_Events: []
